{
  "images" : [
    {
      "idiom" : "universal",
      "filename" : "dd640272608ebbef12e7e0b14451d190.png",
      "scale" : "1x"
    },
    {
      "idiom" : "universal",
      "filename" : "dd640272608ebbef12e7e0b14451d190@2x.png",
      "scale" : "2x"
    },
    {
      "idiom" : "universal",
      "filename" : "dd640272608ebbef12e7e0b14451d190@3x.png",
      "scale" : "3x"
    }
  ],
  "info" : {
    "version" : 1,
    "author" : "xcode"
  }
}